^C:\USERS\MAX\DOCUMENTS\VISUAL STUDIO 2010\PROJECTS\PARTICLES!\PARTICLES!\DEBUG\MAIN.OBJ|C:\USERS\MAX\DOCUMENTS\VISUAL STUDIO 2010\PROJECTS\PARTICLES!\PARTICLES!\DEBUG\PARTICLE.OBJ
C:\USERS\MAX\DOCUMENTS\VISUAL STUDIO 2010\PROJECTS\PARTICLES!\DEBUG\PARTICLES!.ILK
C:\USERS\MAX\DOCUMENTS\VISUAL STUDIO 2010\PROJECTS\PARTICLES!\DEBUG\PARTICLES!.EXE
C:\USERS\MAX\DOCUMENTS\VISUAL STUDIO 2010\PROJECTS\PARTICLES!\PARTICLES!\DEBUG\PARTICLES!.EXE.INTERMEDIATE.MANIFEST
C:\USERS\MAX\DOCUMENTS\VISUAL STUDIO 2010\PROJECTS\PARTICLES!\DEBUG\PARTICLES!.PDB
^C:\USERS\MAXIM\PARTICLES!\PARTICLES!\PARTICLES!\DEBUG\EMITTER.OBJ|C:\USERS\MAXIM\PARTICLES!\PARTICLES!\PARTICLES!\DEBUG\KEYS.OBJ|C:\USERS\MAXIM\PARTICLES!\PARTICLES!\PARTICLES!\DEBUG\MAIN.OBJ|C:\USERS\MAXIM\PARTICLES!\PARTICLES!\PARTICLES!\DEBUG\PARTICLE.OBJ
C:\PARTICLES!\PARTICLES!.ILK
C:\PARTICLES!\PARTICLES!.EXE
C:\USERS\MAXIM\PARTICLES!\PARTICLES!\PARTICLES!\DEBUG\PARTICLES!.EXE.INTERMEDIATE.MANIFEST
C:\PARTICLES!\PARTICLES!.PDB
