^C:\USERS\MAX\DOCUMENTS\VISUAL STUDIO 2010\PROJECTS\PARTICLES!\PARTICLES!\DEBUG\PARTICLES!.EXE.INTERMEDIATE.MANIFEST
/nologo /verbose /outputresource:"c:\users\max\documents\visual studio 2010\Projects\Particles!\Debug\Particles!.exe;#1" /manifest "Debug\Particles!.exe.intermediate.manifest"
^C:\USERS\MAXIM\PARTICLES!\PARTICLES!\PARTICLES!\DEBUG\PARTICLES!.EXE.INTERMEDIATE.MANIFEST
/nologo /verbose /outputresource:"..\..\..\..\..\..\..\Particles!\Particles!.exe;#1" /manifest "Debug\Particles!.exe.intermediate.manifest"
